Digraph Arbol_Sintactico_SLR{

node0[label = "$"];
node0 -> node00
node00[label = "I"];
node00 -> node000
node000[label = "I"];
node000 -> node0000
node0000[label = "I"];
node0000 -> node00000
node00000[label = "imprimirpaso"];
node00000c[label = "imprimirpaso"];
node00000 -> node00000c
node00000d[label = "debug = true ;
 "];
node00000 -> node00000d
node0000 -> node00001
node00001[label = "E"];
node00001 -> node000010
node000010[label = "numero"];
node000010c[label = "5.0"];
node000010 -> node000010c
node000010d[label = "$$.valor = $1 ;
 $$.cadena =  ;
 "];
node000010 -> node000010d
node0000 -> node00002
node00002[label = "puntoycoma"];
node00002c[label = "puntoycoma"];
node00002 -> node00002c
node00002d[label = "print ( Calificación Compi2 - Calculadora de Series y Sucesiones:  ) ;
 print ( $2.cadena ) ;
 print ( $2.valor ) ;
 "];
node00002 -> node00002d
node000 -> node0001
node0001[label = "E"];
node0001 -> node00010
node00010[label = "E"];
node00010 -> node000100
node000100[label = "numero"];
node000100c[label = "19.0"];
node000100 -> node000100c
node000100d[label = "$$.valor = $1 ;
 $$.cadena =  ;
 "];
node000100 -> node000100d
node0001 -> node00011
node00011[label = "signomas"];
node00011c[label = "signomas"];
node00011 -> node00011c
node0001 -> node00012
node00012[label = "E"];
node00012 -> node000120
node000120[label = "numero"];
node000120c[label = "11.0"];
node000120 -> node000120c
node000120d[label = "$$.valor = $1 ;
 $$.cadena =  ;
 "];
node000120 -> node000120d
node000 -> node0002
node0002[label = "puntoycoma"];
node0002c[label = "puntoycoma"];
node0002 -> node0002c
node0002d[label = "print ( $2.cadena ) ;
 print ( $2.valor ) ;
 "];
node0002 -> node0002d
node00 -> node001
node001[label = "E"];
node001 -> node0010
node0010[label = "E"];
node0010 -> node00100
node00100[label = "numero"];
node00100c[label = "75.0"];
node00100 -> node00100c
node00100d[label = "$$.valor = $1 ;
 $$.cadena =  ;
 "];
node00100 -> node00100d
node001 -> node0011
node0011[label = "signodiv"];
node0011c[label = "signodiv"];
node0011 -> node0011c
node001 -> node0012
node0012[label = "E"];
node0012 -> node00120
node00120[label = "numero"];
node00120c[label = "3.0"];
node00120 -> node00120c
node00120d[label = "$$.valor = $1 ;
 $$.cadena =  ;
 "];
node00120 -> node00120d
node0012d[label = "$$.valor = division ( $1.valor , $3.valor ) ;
 $$.cadena = division ;
 idiv ( $1.valor , $3.valor ) ;
 "];
node0012 -> node0012d
node00 -> node002
node002[label = "puntoycoma"];
node002c[label = "puntoycoma"];
node002 -> node002c
node002d[label = "print ( $2.cadena ) ;
 print ( $2.valor ) ;
 "];
node002 -> node002d


}
